CubeKingdom
1 0
313
99 100 100 ff006e24
100 99 100 ffff6d00
100 100 99 ffffff00
100 100 100 ffffffff
101 100 100 ffffffff
102 100 100 ffffffff
103 100 100 ffffffff
104 100 100 ffffffff
105 100 100 ffffffff
106 100 100 ffffffff
107 100 100 ffffffff
108 100 100 ffffffff
109 100 100 ffffffff
110 100 100 ffffffff
100 100 101 ffffffff
100 100 102 ffffffff
100 100 103 ffffffff
100 100 104 ffffffff
100 100 105 ffffffff
101 100 101 ffffffff
102 100 101 ffffffff
103 100 101 ffffffff
104 100 101 ffffffff
110 100 101 ffffffff
101 100 102 ffffffff
102 100 102 ffffffff
103 100 102 ffffffff
110 100 102 ffffffff
101 100 103 ffffffff
102 100 103 ff00ff00
103 100 103 ffffffff
104 100 103 ffffffff
110 100 103 ffffffff
101 100 104 ffffffff
102 100 104 ffffffff
103 100 104 ffffffff
104 100 104 ffffffff
110 100 104 ffffffff
101 100 105 ffffffff
102 100 105 ffffffff
103 100 105 ffffffff
104 100 105 ffffffff
110 100 105 ffffffff
107 100 106 ffffffff
106 100 106 ffffffff
105 100 106 ffffffff
104 100 106 ffffffff
103 100 106 ffffffff
108 100 106 ffffffff
109 100 106 ffffffff
110 100 106 ffffffff
111 100 100 ffffffff
111 100 101 ffffffff
111 100 102 ffffffff
111 100 103 ffffffff
111 100 104 ffffffff
111 100 105 ffffffff
111 100 106 ffffffff
100 100 106 ffffffff
101 100 106 ffffffff
102 100 106 ffffffff
109 100 104 ffffffff
108 100 104 ffffffff
108 100 105 ffffffff
109 100 105 ffffffff
109 100 102 ff0000ff
109 100 101 ffffffff
109 100 103 ffffffff
105 100 104 ffffffff
106 100 104 ffffffff
107 100 104 ffffffff
105 100 105 ffffffff
106 100 105 ffffffff
107 100 105 ffffffff
105 101 104 ffffffff
105 101 105 ffffffff
105 101 106 ffffffff
106 101 104 ffffffff
106 101 105 ffffffff
106 101 106 ffffffff
105 102 104 ffffffff
105 102 105 ffffffff
105 102 106 ffffffff
106 102 104 ffffffff
106 102 105 ffffff00
106 102 106 ffffffff
107 101 104 ffffffff
107 101 106 ffffffff
107 101 105 ffffffff
107 102 104 ffffffff
107 102 105 ffffffff
107 102 106 ffffffff
108 101 104 ffffffff
108 101 105 ffffffff
108 101 106 ffffffff
104 100 102 ff0000ff
100 100 107 ffffffff
101 100 107 ffffffff
102 100 107 ffffffff
103 100 107 ffffffff
104 100 107 ffffffff
105 100 107 ffffffff
106 100 107 ffffffff
107 100 107 ffffffff
108 100 107 ffffffff
109 100 107 ffffffff
110 100 107 ffffffff
111 100 107 ffffffff
100 101 100 ffffffff
100 102 100 ffffffff
101 101 100 ffffffff
101 102 100 ffffffff
102 101 100 ffffffff
102 102 100 ffffffff
103 101 100 ffffffff
103 102 100 ffff0000
104 101 100 ffffffff
104 102 100 ffffffff
105 101 100 ffffffff
105 102 100 ffffffff
106 102 100 ffffffff
107 102 100 ffff0000
106 101 100 ffffffff
107 101 100 ffffffff
108 101 100 ffffffff
109 101 100 ffffffff
110 101 100 ffffffff
111 101 100 ffffffff
108 102 100 ffffffff
109 102 100 ffffffff
110 102 100 ffffffff
111 102 100 ffffffff
100 101 107 ffffffff
100 102 107 ffffffff
101 102 107 ffffffff
102 102 107 ffffffff
103 102 107 ffff0000
101 101 107 ffffffff
102 101 107 ffffffff
103 101 107 ffffffff
104 101 107 ffffffff
105 101 107 ffffffff
106 101 107 ffffffff
107 101 107 ffffffff
108 101 107 ffffffff
109 101 107 ffffffff
110 101 107 ffffffff
111 101 107 ffffffff
104 102 107 ffffffff
105 102 107 ffffffff
106 102 107 ffffffff
107 102 107 ffffffff
108 102 107 ffffffff
109 102 107 ff000000
110 102 107 ffffffff
111 102 107 ffffffff
111 101 101 ffffffff
111 101 102 ffffffff
111 101 103 ffffffff
111 101 104 ffffffff
111 101 105 ffffffff
111 101 106 ffffffff
111 102 101 ffffffff
111 102 102 ffffffff
111 102 103 ffffffff
111 102 104 ffffffff
111 102 105 ffffffff
111 102 106 ffffffff
100 101 101 ffffffff
100 101 102 ffffffff
100 101 103 ffffffff
100 101 104 ffffffff
100 101 105 ffffffff
100 101 106 ffffffff
100 102 106 ffffffff
100 102 105 ffffffff
100 102 104 ffffffff
100 102 103 ffffffff
100 102 102 ffffffff
100 102 101 ffffffff
111 103 107 ffffffff
110 103 107 ffffffff
109 103 107 ffffffff
108 103 107 ffffffff
107 103 107 ffffffff
106 103 107 ffffffff
105 103 107 ffffffff
104 103 107 ffffffff
103 103 107 ffffffff
102 103 107 ffffffff
101 103 107 ffffffff
100 103 107 ffffffff
100 103 106 ffffffff
100 103 105 ffff0000
100 103 104 ffffffff
100 103 103 ffffffff
100 103 102 ffff0000
100 103 101 ffffffff
100 103 100 ffffffff
102 103 100 ffffffff
101 103 100 ffffffff
103 103 100 ffffffff
104 103 100 ffffffff
105 103 100 ffffffff
106 103 100 ffffffff
107 103 100 ffffffff
108 103 100 ffffffff
109 103 100 ffffffff
110 103 100 ffffffff
111 103 100 ffffffff
111 103 106 ffffffff
111 103 105 ffff0000
111 103 104 ffffffff
111 103 103 ffffffff
111 103 102 ffff0000
111 103 101 ffffffff
100 104 107 ffffffff
101 104 107 ffffffff
102 104 107 ffffffff
103 104 107 ffffffff
104 104 107 ffffffff
105 104 107 ffffffff
106 104 107 ffffffff
107 104 107 ffff0000
108 104 107 ffffffff
109 104 107 ffffffff
110 104 107 ffffffff
111 104 107 ffffffff
111 104 100 ffffffff
111 104 101 ffffffff
111 104 102 ffffffff
111 104 103 ffffffff
111 104 104 ffffffff
111 104 105 ffffffff
111 104 106 ffffffff
100 104 100 ffffffff
101 104 100 ffffffff
102 104 100 ffffffff
103 104 100 ffff0000
104 104 100 ffffffff
105 104 100 ffffffff
106 104 100 ffffffff
107 104 100 ffff0000
108 104 100 ffffffff
109 104 100 ffffffff
110 104 100 ffffffff
100 104 106 ffffffff
100 104 105 ffffffff
100 104 104 ffffffff
100 104 103 ffffffff
100 104 102 ffffffff
100 104 101 ffffffff
109 105 107 ffffffff
110 105 107 ffffffff
110 105 106 ffffffff
110 105 105 ffffffff
110 105 104 ffffffff
110 105 103 ffffffff
110 105 102 ff6e6e6e
110 105 101 ffffffff
109 105 100 ffffffff
110 105 100 ffffffff
109 106 107 ffffffff
109 106 106 ffffffff
109 106 105 ffffffff
109 106 104 ffffffff
109 106 103 ffffffff
109 106 102 ffffffff
109 106 101 ffffffff
109 106 100 ffffffff
108 106 107 ffffffff
108 105 107 ffffffff
107 105 107 ffffffff
107 106 107 ffffffff
108 106 106 ffffffff
108 106 105 ffffffff
108 106 104 ffffffff
108 106 103 ffffffff
108 106 102 ffffffff
108 106 101 ffffffff
108 106 100 ffffffff
108 105 100 ffffffff
107 105 100 ffffffff
107 106 100 ffffffff
106 105 107 ffffffff
106 106 107 ffffffff
107 106 106 ffffffff
107 106 105 ffffffff
107 106 101 ffffffff
106 106 101 ffffffff
106 106 100 ffffffff
106 105 100 ffffffff
105 105 100 ffffffff
104 105 100 ffffffff
103 105 100 ffffffff
104 106 100 ffffffff
104 106 101 ffffffff
105 106 101 ffffffff
106 106 102 ffffffff
105 106 102 ff6e6e6e
105 106 100 ffffffff
102 105 100 ffffffff
101 105 100 ffffffff
103 106 100 ffffffff
105 105 107 ffffffff
100 105 107 ffffffff
100 105 106 ffffffff
100 105 105 ffffffff
102 105 107 ffffffff
100 105 103 ffffffff
100 105 102 ffffffff
100 105 100 ffffffff
100 106 107 ff6e6e6e
