CubeKingdom
1 0
458
99 100 100 ff006e24
100 99 100 ffff6d00
100 100 99 ffffff00
100 100 100 ffffffff
100 100 101 ffffffff
100 100 102 ffffffff
100 100 103 ffffffff
100 100 104 ffffffff
101 100 100 ffffffff
102 100 100 ffffffff
103 100 100 ffffffff
101 100 101 ffffffff
102 100 101 ffffffff
103 100 101 ffffffff
101 100 102 ffffffff
102 100 102 ffffffff
103 100 102 ffffffff
104 100 100 ffffffff
104 100 101 ff00ff00
104 100 102 ffffffff
101 100 104 ffffffff
101 100 103 ffffffff
102 100 103 ffffffff
103 100 103 ffffffff
104 100 103 ffffffff
102 100 104 ffffffff
103 100 104 ffffffff
104 100 104 ffffffff
100 100 105 ffffffff
101 100 105 ffffffff
102 100 105 ffffffff
103 100 105 ffffffff
104 100 105 ffffffff
105 100 105 ffffffff
105 100 104 ffffffff
105 100 103 ffffffff
105 100 102 ffffffff
105 100 101 ffffffff
105 100 100 ffffffff
100 101 100 ffffffff
100 102 100 ffffffff
100 103 100 ffffffff
100 104 100 ffffffff
100 105 100 ffffffff
100 106 100 ffffffff
100 107 100 ffffffff
100 101 101 ffffffff
100 102 101 ffffffff
100 103 101 ffffffff
100 104 101 ffffffff
100 105 101 ffffffff
100 106 101 ffffffff
100 107 101 ffffffff
100 101 102 ffffffff
100 102 102 ffffffff
100 105 102 ffffffff
100 106 102 ffffffff
100 107 102 ffffffff
100 101 103 ffffffff
100 102 103 ffffffff
100 105 103 ffffffff
100 106 103 ffffffff
100 107 103 ffffffff
100 101 104 ffffffff
100 102 104 ffffffff
100 105 104 ffffffff
100 106 104 ffff0000
100 107 104 ffffffff
100 101 105 ffffffff
100 102 105 ffffffff
100 103 105 ffffffff
100 104 105 ffffffff
100 105 105 ffffffff
100 106 105 ffffffff
100 107 105 ffffffff
100 100 106 ffffffff
101 100 106 ffffffff
102 100 106 ffffffff
103 100 106 ffffffff
104 100 106 ffffffff
105 100 106 ffffffff
100 101 106 ffffffff
100 102 106 ffffffff
100 103 106 ffffffff
100 104 106 ffffffff
100 104 107 ffffffff
100 104 108 ffffffff
101 104 108 ffffffff
102 104 108 ffffffff
103 104 108 ffffffff
104 104 108 ffffffff
105 104 108 ffff0000
100 103 107 ffffffff
100 102 107 ffffffff
100 101 107 ffffffff
100 100 107 ffffffff
101 100 107 ffffffff
102 100 107 ffffffff
103 100 107 ffffffff
104 100 107 ffffffff
105 100 107 ffffffff
105 103 108 ffffffff
105 102 108 ffffffff
105 101 108 ffffffff
105 100 108 ffffffff
104 103 108 ffffffff
104 102 108 ffffffff
104 101 108 ffffffff
104 100 108 ffffffff
103 103 108 ffffffff
103 102 108 ffffffff
103 101 108 ffffffff
103 100 108 ffffffff
102 103 108 ffffffff
102 102 108 ffffffff
102 101 108 ffffffff
102 100 108 ffffffff
101 103 108 ffffffff
101 102 108 ffffffff
101 101 108 ffffffff
101 100 108 ffffffff
100 103 108 ffffffff
100 102 108 ffffffff
100 101 108 ffffffff
100 100 108 ffffffff
100 107 106 ffffffff
100 107 107 ffffffff
100 106 106 ffffffff
100 106 107 ffffffff
100 105 106 ffffffff
100 105 107 ffffffff
100 105 108 ffffffff
100 107 108 ffffffff
100 106 108 ffffffff
100 107 109 ffffffff
100 106 109 ffffffff
100 105 109 ffffffff
100 104 109 ffffffff
100 103 109 ffffffff
100 102 109 ffffffff
100 101 109 ffffffff
100 100 109 ffffffff
101 104 109 ffffffff
102 104 109 ffffffff
103 104 109 ffffffff
104 104 109 ffffffff
105 104 109 ffffffff
101 103 109 ffffffff
102 103 109 ffffffff
103 103 109 ffffffff
104 103 109 ffffffff
105 103 109 ffffffff
101 102 109 ffffffff
102 102 109 ffffffff
103 102 109 ffffffff
104 102 109 ffffffff
105 102 109 ffffffff
101 101 109 ffffffff
102 101 109 ffffffff
103 101 109 ffffffff
104 101 109 ffffffff
105 101 109 ffffffff
101 100 109 ffffffff
102 100 109 ffffffff
103 100 109 ffffffff
104 100 109 ffffffff
105 100 109 ffffffff
106 105 109 ffffffff
106 104 109 ffffffff
106 103 109 ffffffff
106 102 109 ffffffff
106 101 109 ffffffff
106 100 109 ffffffff
106 100 108 ffffffff
106 100 107 ffffffff
106 100 106 ffffffff
106 100 105 ffffffff
106 100 104 ffffffff
106 100 103 ffffffff
106 100 102 ffffffff
106 100 101 ffffffff
106 100 100 ffffffff
106 101 108 ffffffff
106 101 100 ffffffff
106 102 108 ffffffff
106 102 100 ffffffff
106 103 108 ffffffff
106 103 100 ffffffff
106 105 108 ffffffff
106 104 108 ffffffff
106 104 100 ffffffff
106 105 100 ffffffff
106 107 110 ffffffff
105 107 110 ffffffff
104 107 110 ffffffff
103 107 110 ffffffff
102 107 110 ffffffff
101 107 110 ffffffff
100 107 110 ffffffff
106 106 110 ffffffff
105 106 110 ffffffff
104 106 110 ffffffff
103 106 110 ffffffff
102 106 110 ffffffff
101 106 110 ff000000
100 106 110 ffffffff
106 105 110 ffffffff
106 104 110 ffffffff
106 103 110 ffffffff
106 102 110 ffffffff
106 101 110 ffffffff
106 100 110 ffffffff
105 105 110 ffffffff
104 105 110 ffffffff
103 105 110 ffffffff
102 105 110 ffffffff
101 105 110 ffffffff
100 105 110 ffffffff
105 104 110 ffffffff
104 104 110 ffffffff
103 104 110 ffffffff
102 104 110 ffffffff
101 104 110 ffffffff
100 104 110 ffffffff
105 103 110 ffffffff
104 103 110 ffffffff
103 103 110 ffffffff
102 103 110 ffffffff
101 103 110 ffffffff
100 103 110 ffffffff
105 102 110 ffffffff
104 102 110 ffffffff
103 102 110 ffffffff
102 102 110 ffffffff
101 102 110 ffffffff
100 102 110 ffffffff
105 100 110 ffffffff
105 101 110 ffffffff
104 101 110 ffffffff
103 101 110 ffffffff
102 101 110 ffffffff
101 101 110 ffffffff
100 101 110 ffffffff
104 100 110 ffffffff
103 100 110 ffffffff
102 100 110 ffffffff
101 100 110 ffffffff
100 100 110 ffffffff
101 101 100 ffffffff
101 102 100 ffffffff
101 103 100 ffffffff
101 104 100 ffffffff
101 105 100 ffffffff
101 106 100 ffffffff
101 107 100 ffffffff
102 101 100 ffffffff
102 102 100 ffffffff
102 103 100 ffffffff
102 104 100 ffffffff
102 105 100 ffffffff
102 106 100 ffff0000
102 107 100 ffffffff
103 101 100 ffffffff
103 102 100 ffffffff
103 103 100 ffffffff
103 104 100 ffffffff
103 105 100 ffffffff
103 106 100 ffffffff
103 107 100 ffffffff
104 101 100 ffffffff
104 102 100 ffffffff
104 103 100 ffffffff
104 104 100 ffffffff
104 105 100 ffffffff
104 107 100 ffffffff
105 101 100 ffffffff
105 102 100 ffffffff
105 103 100 ffffffff
105 104 100 ffffffff
105 105 100 ffffffff
100 108 110 ffffffff
100 108 109 ffffffff
100 108 108 ffffffff
100 108 107 ffffffff
100 108 106 ffffffff
100 108 105 ffffffff
100 108 104 ffffffff
100 108 103 ffffffff
100 108 102 ffffffff
100 108 101 ffffffff
100 108 100 ffffffff
101 108 110 ffffffff
101 108 100 ffffffff
102 108 110 ffffffff
102 108 100 ffffffff
103 108 110 ffffffff
103 108 100 ffffffff
104 108 110 ffffffff
105 108 110 ffffffff
106 108 110 ffffffff
100 104 104 ffffffff
100 103 104 ffffffff
100 104 103 ffffffff
100 103 103 ffffffff
100 104 102 ffffffff
100 103 102 ffffffff
103 105 109 ffffff00
101 105 109 ffffffff
101 105 108 ffffffff
102 105 109 ffffffff
102 105 108 ffffffff
103 105 108 ffffffff
104 105 109 ffffffff
104 105 108 ffffffff
105 105 109 ffffffff
105 105 108 ffffffff
100 109 110 ffffffff
101 109 110 ffffffff
102 109 110 ffffffff
104 109 110 ffffffff
103 109 110 ffffffff
105 109 110 ffffffff
106 109 110 ffffffff
107 100 100 ffffffff
107 100 101 ffffffff
107 100 102 ffffffff
107 100 103 ffffffff
107 100 104 ffffffff
107 100 105 ffffffff
107 100 106 ffffffff
107 100 107 ffffffff
107 100 108 ffffffff
107 100 109 ffffffff
107 100 110 ffffffff
108 100 100 ffffffff
108 100 101 ffffffff
108 100 102 ffffffff
108 100 103 ffffffff
108 100 104 ffffffff
108 100 105 ffffffff
108 100 106 ffffffff
108 100 107 ffffffff
108 100 108 ffffffff
108 100 109 ffffffff
108 100 110 ffffffff
107 105 110 ffffffff
107 105 109 ffffffff
107 105 108 ffffffff
107 104 108 ffffffff
107 103 108 ffffffff
107 102 108 ffffffff
108 101 107 ffffffff
107 101 108 ffffffff
108 101 108 ffffffff
107 101 109 ffffffff
107 102 109 ffffffff
107 103 109 ffffffff
107 104 109 ffffffff
107 104 110 ffffffff
107 103 110 ffffffff
107 102 110 ffffffff
107 101 110 ffffffff
108 101 109 ffffffff
108 101 110 ffffffff
108 102 108 ffffffff
108 102 109 ffffffff
108 102 110 ffffffff
108 103 110 ffffffff
108 103 109 ffffffff
108 103 108 ffffffff
108 104 108 ffffffff
108 104 109 ffffffff
108 104 110 ffffffff
108 105 110 ffffffff
108 105 109 ffffffff
107 106 110 ffffffff
107 107 110 ffffffff
107 108 110 ffffffff
107 109 110 ffffffff
108 106 110 ffffffff
108 107 110 ffffffff
108 108 110 ffffffff
107 101 100 ffffffff
108 101 100 ffffffff
107 102 100 ffffffff
108 102 100 ffffffff
107 103 100 ffffffff
108 103 100 ffffffff
107 104 100 ffffffff
108 104 100 ffffffff
107 105 100 ffffffff
108 105 100 ffffffff
107 106 100 ffffffff
108 106 100 ffffffff
108 107 100 ffffffff
108 104 101 ffffffff
108 101 106 ffffffff
108 103 101 ffffffff
108 103 102 ffffffff
108 103 103 ffffffff
108 102 101 ffffffff
108 102 102 ffffffff
108 102 103 ffffffff
108 101 101 ffffffff
108 101 102 ffffffff
108 101 103 ffffffff
108 101 104 ff0000ff
108 101 105 ffffffff
100 109 109 ffffffff
100 109 108 ffffffff
100 109 107 ffffffff
100 109 106 ffffffff
100 109 103 ffffffff
100 109 102 ffffffff
100 109 101 ffffffff
100 109 100 ffffffff
101 109 109 ffffffff
101 109 108 ffffffff
101 109 107 ffffffff
101 109 103 ffffffff
101 109 102 ffffffff
101 109 101 ffffffff
101 109 100 ffffffff
102 109 109 ffffffff
102 109 108 ffff0000
102 109 107 ffffffff
102 109 101 ffffffff
102 109 100 ffffffff
103 109 109 ffffffff
103 109 108 ffffffff
103 109 107 ffffffff
103 109 102 ffffffff
103 109 101 ffffffff
103 109 100 ffffffff
104 109 109 ffffffff
104 109 108 ffffffff
104 109 102 ffffffff
104 109 101 ffffffff
105 109 109 ffffffff
106 109 109 ffffffff
105 109 102 ffffffff
105 109 101 ffffffff
106 109 101 ffffffff
101 101 104 ffffffff
101 102 104 ffffffff
102 101 104 ff0000ff
108 105 108 ffff0000
102 109 102 ffffffff
108 104 102 ffffffff
102 101 103 ffffffff
101 101 103 ffffffff
101 102 103 ffffffff
102 102 103 ffffffff
101 104 101 ffffffff
102 104 101 ffffffff
101 105 104 ffffffff
101 105 101 ffffffff
101 105 105 ffffffff
